{
  "name": "test_snap",
  "features": [
    "dayofweek",
    "item",
    "log_lagged_encoder_rolling_store_item_28d_dayofweek_mean_qte",
    "log_lagged_encoder_rolling_store_item_28d_mean_qte",
    "store",
    "state_snap"
  ],
  "git_hash": "78a218d72a16653d19c41a4aaf3cb2a2b05ade80",
  "metrics": [
    {
      "fold": 2,
      "rmse": 2.070233604582677,
      "time": 302.07079434394836,
      "wrmsse": 0.7472153601721323
    },
    {
      "fold": 1,
      "rmse": 1.9924737498148337,
      "time": 287.32519459724426,
      "wrmsse": 0.7265352672682722
    },
    {
      "fold": 0,
      "rmse": 2.038275638287906,
      "time": 220.4021828174591,
      "wrmsse": 0.7955535269359024
    }
  ],
  "model_opt": {
    "boosting_type": "goss",
    "class_weight": null,
    "colsample_bytree": 1,
    "early_stopping_rounds": 500,
    "importance_type": "split",
    "learning_rate": 0.03,
    "max_depth": -1,
    "min_child_samples": 20,
    "min_child_weight": 0.0001,
    "min_split_gain": 0,
    "n_estimators": 1000,
    "n_jobs": -1,
    "num_leaves": 255,
    "objective": "rmse",
    "random_state": 123,
    "reg_alpha": 0,
    "reg_lambda": 30,
    "silent": true,
    "subsample": 1,
    "subsample_for_bin": 200000,
    "subsample_freq": 0,
    "verbosity": -1
  },
  "model_type": "LGBMRegressor",
  "sample_weight": "sample_weight",
  "scores": [
    {
      "agg": "mean",
      "value": 1,
      "variable": "fold"
    },
    {
      "agg": "std",
      "value": 1,
      "variable": "fold"
    },
    {
      "agg": "mean",
      "value": 212.93596227963766,
      "variable": "time"
    },
    {
      "agg": "std",
      "value": 9.362982123712447,
      "variable": "time"
    },
    {
      "agg": "mean",
      "value": 2.0468423806266465,
      "variable": "valid"
    },
    {
      "agg": "std",
      "value": 0.037578006066980106,
      "variable": "valid"
    },
    {
      "agg": "mean",
      "value": 0.8100430843614678,
      "variable": "wrmsse"
    },
    {
      "agg": "std",
      "value": 0.011811702461377685,
      "variable": "wrmsse"
    }
  ]
}
